Cas d’étude: LOD et jumelages dans le monde
…
Nota bene: pour un même noeud plusieurs populations (au cours du temps) peuvent être référencées dans les Wikidata. On vérifie alors si la population est peu instable dans le temps (i.e. un how_variable faible) alors on prend la population médiane, sinon on prend le maximum (ce qui est ici le cas pour partner et pour place).

Vérification de la stabilité des populations associées à chaque place dans le temps et choix de la population maximale

# Pour vérifier à quel point la valeur de pop est "instable"
nodes_pop%>%
  group_by(node) %>% 
  summarise(n=n_distinct(pop),
            median_pop=median(pop),
            how_variable=diff(range(pop))/median_pop,
            .groups="drop") %>% 
  arrange(desc(n))

## # A tibble: 17,800 × 4
##    node            n median_pop how_variable
##    <chr>       <int>      <dbl>        <dbl>
##  1 wd:Q152374     69      30500         1.24
##  2 wd:Q152387     69      30300         1.31
##  3 wd:Q167677     68      15700         2.90
##  4 wd:Q501543     67      12900         1.74
##  5 wd:Q188336     66      16550         2.02
##  6 wd:Q168202     60      12550         4.02
##  7 wd:Q152368     57      13100         1.30
##  8 wd:Q1743479    57      11800         1.28
##  9 wd:Q1000887    54      10400         2.80
## 10 wd:Q2588837    48       6550         1.27
## # … with 17,790 more rows
…
